{
  "development": {
    "username": "postgres",
    "password": "admin123",
    "database": "todolist",
    "host"    : "dbPostgres",
    "dialect" : "postgres"
  },
  "test": {
    "username": "postgres",
    "password": "admin123",
    "database": "todolist",
    "host": "dbPostgres",
    "dialect": "postgres"
  },
  "production": {
    "username": "root",
    "password": null,
    "database": "database_production",
    "host": "127.0.0.1",
    "dialect": "mysql"
  }
}
